project_2.sim/sim_1/behav/xsim/simulate.log
Time resolution is 1 ps
Time=0 | d=0, clk=0, c1=0, c2=0 -> d_bar=z, clk_bar=z, p1=0, q1=0, p2=0, q2=0, r2=0, p3=0, q=0, q_bar=0
Time=5000 | d=0, clk=1, c1=0, c2=0 -> d_bar=z, clk_bar=z, p1=0, q1=0, p2=1, q2=0, r2=0, p3=0, q=0, q_bar=0
Time=10000 | d=0, clk=0, c1=0, c2=1 -> d_bar=z, clk_bar=z, p1=0, q1=0, p2=0, q2=0, r2=0, p3=0, q=0, q_bar=x
Time=15000 | d=0, clk=1, c1=0, c2=1 -> d_bar=z, clk_bar=z, p1=0, q1=0, p2=1, q2=0, r2=0, p3=0, q=0, q_bar=x
Time=20000 | d=0, clk=0, c1=1, c2=0 -> d_bar=z, clk_bar=z, p1=0, q1=0, p2=0, q2=0, r2=0, p3=0, q=x, q_bar=0
Time=25000 | d=0, clk=1, c1=1, c2=0 -> d_bar=z, clk_bar=z, p1=0, q1=0, p2=1, q2=0, r2=0, p3=0, q=x, q_bar=0
Time=30000 | d=1, clk=0, c1=1, c2=0 -> d_bar=z, clk_bar=z, p1=1, q1=1, p2=0, q2=x, r2=x, p3=x, q=x, q_bar=1
Time=35000 | d=1, clk=1, c1=1, c2=0 -> d_bar=z, clk_bar=z, p1=1, q1=1, p2=1, q2=1, r2=1, p3=1, q=x, q_bar=1
Time=40000 | d=0, clk=0, c1=0, c2=1 -> d_bar=z, clk_bar=z, p1=0, q1=0, p2=0, q2=0, r2=0, p3=0, q=0, q_bar=x
Time=45000 | d=0, clk=1, c1=0, c2=1 -> d_bar=z, clk_bar=z, p1=0, q1=0, p2=1, q2=0, r2=0, p3=0, q=0, q_bar=x
Time=50000 | d=1, clk=0, c1=0, c2=1 -> d_bar=z, clk_bar=z, p1=1, q1=1, p2=0, q2=x, r2=x, p3=x, q=1, q_bar=x
Time=55000 | d=1, clk=1, c1=0, c2=1 -> d_bar=z, clk_bar=z, p1=1, q1=1, p2=1, q2=1, r2=1, p3=1, q=1, q_bar=x
Time=60000 | d=0, clk=0, c1=1, c2=1 -> d_bar=z, clk_bar=z, p1=0, q1=0, p2=0, q2=0, r2=0, p3=0, q=x, q_bar=x
Time=65000 | d=0, clk=1, c1=1, c2=1 -> d_bar=z, clk_bar=z, p1=0, q1=0, p2=1, q2=0, r2=0, p3=0, q=x, q_bar=x
Time=70000 | d=1, clk=0, c1=1, c2=1 -> d_bar=z, clk_bar=z, p1=1, q1=1, p2=0, q2=x, r2=x, p3=x, q=1, q_bar=1
Time=75000 | d=1, clk=1, c1=1, c2=1 -> d_bar=z, clk_bar=z, p1=1, q1=1, p2=1, q2=1, r2=1, p3=1, q=1, q_bar=1
$finish called at time : 80 ns : File "C:/Users/conve/project_2/project_2.srcs/sim_1/new/rg_tb.v" Line 52
